*** Life<FredkinCell> 5x5 ***

Generation = 0, Population = 9.
0----
-0-0-
-00--
-0---
00--0

Generation = 1, Population = 11.
---0-
-10-0
011--
----0
1-00-

Generation = 2, Population = 8.
-0---
---0-
12-0-
-0---
--11-

Generation = 3, Population = 14.
0-00-
0-010
2--10
-1---
--220

Generation = 4, Population = 4.
1----
-----
3----
-----
--3-1

Generation = 5, Population = 6.
-0---
-----
-2---
0-0-0
-0---

*** Life<FredkinCell> 5x5 ***

Generation = 0, Population = 12.
0-000
-----
00--0
-0--0
0-0-0

Generation = 2, Population = 11.
--20-
-1--0
2---2
--010
-10--

Generation = 4, Population = 13.
-042-
-----
20-02
1-0-0
-300-

Generation = 6, Population = 13.
-244-
1-1-2
22-22
-----
-522-

Generation = 8, Population = 13.
-466-
-----
24-42
3-2-2
-724-

Generation = 10, Population = 13.
-668-
3-3-4
26-62
-----
-946-

*** Life<FredkinCell> 5x5 ***

Generation = 0, Population = 15.
000-0
00000
-----
-0--0
-0000

Generation = 4, Population = 13.
--032
0-1-0
3--3-
3-1-2
3--1-

Generation = 8, Population = 13.
--044
2-3-2
4--4-
5-3-4
5--2-

Generation = 12, Population = 13.
--056
4-5-4
5--5-
7-5-6
7--3-

Generation = 16, Population = 13.
--068
6-7-6
6--6-
9-7-8
9--4-

Generation = 20, Population = 13.
--07+
8-9-8
7--7-
+-9-+
+--5-

*** Life<FredkinCell> 10x10 ***

Generation = 0, Population = 18.
-0--------
----0-----
--------0-
0--0-0-0--
-----0----
--0-------
----0-----
-----0---0
-0----0---
00--0----0

Generation = 1, Population = 41.
0-0-0-----
-0-0-0--0-
0--000---0
-00--1----
0-000100--
-0-000----
--00-----0
-0------0-
-10-0--0--
1-00-00-0-

Generation = 2, Population = 43.
-0-0----0-
0-01-100--
-0---10---
01-00--0-0
---11--10-
---11--0-0
-01--0----
01000-----
---0----0-
-0-10110-0

Generation = 3, Population = 48.
--01000--0
--1---11--
01-----0-0
1------10-
0002210210
-0----010-
---00-00-0
12111---0-
0---000---
1------10-

Generation = 4, Population = 33.
-0------0-
0-2-0---0-
-2------0-
-10001-2-0
-1----1--1
-1----1--0
0---------
---22-----
--0---1---
20--01-210

Generation = 5, Population = 50.
----0--010
-----1-1-0
-300-1--1-
12---20-01
0--22-2-1-
-20--02101
---00-0--0
1--3300---
0-------00
31-11213-1

*** Life<FredkinCell> 10x10 ***

Generation = 0, Population = 31.
---0--0-0-
--------00
-------0--
00----0---
-0---0----
000-000--0
--0-----00
--000-----
0----0-0-0
00-------0

Generation = 2, Population = 41.
-0-011-0--
00-----0-2
-1-0--0-01
-0-0-00---
--0-----01
22002---02
-0--0-1---
11--------
2--1-0--02
-2--0--1--

Generation = 4, Population = 49.
-20-13--2-
221---02--
--0---2---
-212-2----
1--1--110-
44--2-21-2
1---201-2-
-------011
4-1110---4
0-100011-2

Generation = 6, Population = 55.
020--5012-
-4------03
-20100401-
143--2-1-0
-1---11--1
662-4-4--2
3-01-01--1
-111--02--
60-3----14
221-22----

Generation = 8, Population = 43.
2-22370120
3431-00---
-4--------
3----20-1-
31-----2--
6----1-21-
502---3--3
21-3-00-2-
-2-----0--
2--2-4----

Generation = 10, Population = 58.
4-2-3921-2
365---03--
-61-014-21
55--1-----
---2-11---
683--152-2
7-41---043
2333120---
7424-00---
2-32-4230-

*** Life<FredkinCell> 10x10 ***

Generation = 0, Population = 54.
-0-00---0-
0-00-00-00
0---0--0-0
0-0-----0-
00-----0-0
000--0--00
00-0-00000
0----0000-
-0-0--0000
0-0-0000-0

Generation = 4, Population = 50.
2----2-3--
2--2-4--10
--02--0-2-
--2--0-1--
-211--3---
2-103-1--2
1--20--200
-3-00210-3
300-0-1--0
--2142--14

Generation = 8, Population = 51.
--111---4-
-5--1-2--4
0-04-113-3
0---20-1-0
3---2----2
3-1--33-0-
2----22-12
3-4-2--1-4
51-0--5021
3-3-8-51-6

Generation = 12, Population = 41.
--31-3----
----28-1-6
-12------5
-2-6-0--02
-6---17-34
--2---5524
4244--3-1-
---13--236
----1-62-5
---3------

Generation = 16, Population = 50.
315--5-565
76283-61--
-----1-46-
---7---2--
---6-28-4-
4-3---9-2-
6-8--27724
39-14---7-
86015----6
--438-52--

Generation = 20, Population = 42.
5-6-----6-
-----98--9
---53-2-7-
02--4--435
-94+-6---6
-2----+-2-
65-7--9---
59--6554--
+----3---6
-2--9--46+

*** Life<FredkinCell> 20x20 ***

Generation = 0, Population = 37.
-------0----0-------
---00------00-------
--------------------
---------0-0-------0
-----------0--------
----------------0---
---0-----0--0-------
-------0----0---0---
------------------0-
-0------------------
0-0-----------------
--------------------
----0---------------
-----0--------------
----0--0-0----------
------0---0---------
--0---0-----0-------
--0-0-------------0-
0-------------0-----
------------0-------

Generation = 1, Population = 108.
---00-0-0---10------
--0110-0--01-0------
---00----0--0------0
--------0--10-----0-
---------0010---0--0
---0-----0-00--0-0--
--0-0--00-0010------
---0--0-00-010-0-00-
-0-----0----0---00-0
------------------0-
-0-0----------------
0-0-0---------------
---0----------------
----0-00-0----------
---0----------------
--0-001----00-------
-0100010--00-0----0-
001--00-----0-0--0-0
-00-0-------00-0--0-
0----------0-00-----

Generation = 2, Population = 103.
-----0-0-00-2-0-----
-01--10---12-10----0
-------0---01-------
---00--0-0--10--00-0
---0--------10------
-------0-1-11-0-0-00
-0---0-1--1---0---0-
-0---0---10-----0-1-
0-00-----0--1---1---
---0---0----0---0---
--0---------------0-
-0---0--------------
0---0-00-0----------
---0--11--0---------
----00-0-0-00-------
--1--1------1-----0-
----1--1001---------
1-2-0-----0-1---0---
0-----0---------0---
--0-0-----0-0-1---0-

Generation = 3, Population = 187.
-00-010--1-0-010---0
01211-10-----2-0--0-
-00000-100---00-00--
--0-1001--0-2-0011--
--01--------2----00-
-0-0-001--02-01----1
010-01-2002-1010-0--
-1-001000--01-001-20
-01-00-001-020-0-00-
0-010-0-00-010-0100-
-----0-0----0---00-0
-------0-0--------0-
-----0--------------
0-0-0--200--0-------
--0-1-01--01-0----0-
-0-0021-0-0-20---0-0
0--02-12---0----0-0-
2---10000-1--0-010--
10---0-0------00100-
00---00--0-----000-0

Generation = 4, Population = 104.
---0----0-------0---
1--22------20--1----
---1---2-1----------
-----1------30--22--
------------3--0--1-
-1-10------3--------
1-1--2-31----1--0---
---1----11--2---2--1
----1------1--0---1-
-0--------------2---
0-00--01----1-------
------01--0-0---0---
0-0---0-0---0-----0-
--1-1----1--------0-
0-10-0--0--2-10-----
--1---2---1-3-0-----
1-1-3-2-0-1-----1---
-----11-1---1-0---0-
2-0----1-00---1---1-
--0-0-1-0-0-----1-0-

Generation = 5, Population = 200.
0-01---0-1-02----0--
-12331-00013120-----
0-02-00---00-0-000--
---01-01-0-1-10-33--
-0-100------4-0----0
--021--10-0--0-00-0-
-1-0---4---0--1010-0
0----1---20---0030--
-0---0--010--0-0-0--
---10-00---01-00-00-
-01100--0-0020------
---0-01--0---0-0-00-
--100010--0010--0010
-0-0--1-0-00000--010
--211--1----02-0--0-
-0--0-30-020-0100---
--2--0--1-20---0-00-
-----2-02--0--101010
--10000--1-0002010-0
001----0-010--10--10

*** Life<FredkinCell> 20x20 ***

Generation = 0, Population = 73.
-0-------0--0-----0-
----0-0---0--00--0-0
-0------------------
-------------0-----0
-0------0--000---0--
--000000-----0----0-
--------0-00----0---
----0------0--0-----
--00-00---000-------
0--0-----0--------0-
-----0--------------
-----------------0--
0-------0-0---------
-----0--0---0--0----
0---0----0---0-0-0--
-0--------0-000-----
0---0---------------
---------------0-0--
----------0---------
---------00---------

Generation = 2, Population = 169.
---0---0-0010-1-0-0-
--0-0-0----1-2--10-0
---0----00-0-0---10-
--00-0-0--01--10--1-
-0-1--1-011--21-1--1
00200-0210---2101--1
-011-1---0--1-1--11-
0---00-0----0---1---
11-0---100-2211-0---
010-10-0------0-01--
1-0--0100--00-------
1--0-1--10--0-----10
--0-010-200-10-1-1--
-0-0--11--1-0-------
0---0-000-0--2---0-0
---0-0----002-2001--
----0-0--01--1-1-1--
-0-------0--0-10-0-0
0---0---0---0-------
-------012010--0-0--

Generation = 4, Population = 166.
-0---------32-1-210-
0--0-000100--4-1-0--
-----1--22100---0-0-
----0----1-1--12----
--010-300-1112-03103
204-2--232-0-2-----3
-0--0300------30----
2------20-0--0-1-010
--2-----02-4411000--
---2-01-1---0-20----
11--0---0-12-1-011--
-1--1-----000------2
1--023----00--0-----
00-01---2--02--20001
0-0-0---2000-----2--
-0---01-1-----4-0-1-
--0-0-----1---------
-----0--020121-0----
0---0-0--12--110-0--
-0---01---0-0--0-0--

Generation = 6, Population = 216.
-0-1-1--1---4111-321
0010--0---021421-2-0
-00-0--0-2322-110-01
-0-120-1-30-1--21--1
1-0-2-52023---30----
4--1-0--54-2--10--0-
--22-3--1-2-215-1330
-0-02--20-0---013--2
----02--2426633---01
2--2-23----1--221-0-
--2-21-----2-1101-11
331011--312020--1-3-
3-10-5103------1----
22-03-2-40224-04---3
2-0120-2400-0212---1
00-0-23030--324-03-1
0---0------01212----
---0--0--40-----1-0-
0-0---21--4--1--02-0
-0--0-1222210-02---0

Generation = 8, Population = 164.
-2130-0-121-4-3-33--
--3-0--0---41-23---0
-2------22-442---2--
-----2-----2-----1--
-2-14---2-3----23---
6253--0-7-02--3--0--
-1441---1---41-0-3-0
-010--1---0--22---22
--2-0----448635----1
-3-22---2--1-1-4-2-1
----------1--1------
----------2--0-1---2
301---3----122--011-
4402-04--24-----111-
-02--002-0-12--20--1
--1---3--0-0--61-5-3
2--100--1-22--------
00-0---0--0-3131-20-
0-0-11---2---1-1-41-
-00--1--2---2--4--1-

Generation = 10, Population = 205.
14--0101--3--252--32
1-5-2-0---043-2-13-0
--01---1----64-2-4-3
01--2-1-051-22---3--
-4--60--42521234-203
---------4-4--31122-
0---35--32--6--01--2
-010311---20-42--0--
22-0--22-6--635-0---
-----44--013--44--0-
22--3-1-21321-312322
4-2-221--24-2---2-4-
-2-1-5514---2--2--1-
-4---06--26-41-53314
20414-0----144--04-3
2-3--35-4--0-38-----
---1020-1122----0111
2-12-02---2-53----0-
2----14-1-40-3--04-2
--01032-2-3-----1---

*** Life<FredkinCell> 20x20 ***

Generation = 0, Population = 133.
--0----0-00------0--
--00-000------0--00-
0-00---0--------00--
---00-0-00-0---0-000
-------00--0------0-
00000-----0---0-0--0
--0--0-0-0-------00-
-00--0------------0-
----00--00-000-000--
00--0-00--0-----00-0
------0----0-00----0
----0---0--00-0000--
--0----0-0--------00
00--00---0000-0--0--
----000---0-0-0-----
0---0-0---0-0----0--
0---0------0-000----
0------0---0--0---0-
---0---0---0--------
--0----00--0--00-00-

Generation = 4, Population = 186.
--2--3--2-----1-3100
--2002---012-11-024-
1-022101--2301----03
31--2---0-041-0--0--
--10-1--0-2--00-1-2-
1--1---11---0--021-0
-11--1-0-1---2--122-
3--1-1------1---3--1
011-12-212-----211-0
423-2-2-200--1110---
----1-1---1-0-1--0--
-13--112---010-212--
---0--0-02-120-03-1-
110----1-0-1---1-1--
2011---0-2---2--2-02
4-1---41--2-100---30
2---4---1-01---2-1--
11-0-2--31-00-2---0-
----1101--1-0-01----
1--0-------2-1-2-12-

Generation = 8, Population = 190.
-0-----3213512-353--
216-1--2-4-2-11--68-
---33--32145-25-2-05
-231--20--4--112--6-
---------14---03-22-
115--031---4-1--2-3-
--3--302----02------
52---33--00-123--1--
---2-2--3-031-1--3--
--31--------125-010-
--11-51------33-125-
1-------1---2-42-30-
-1--0--12----204-12-
35---0-5--1301--0-1-
4413223--3-3043--01-
-23-026121-13--3--3-
2-12---1-1----6-3-1-
-3-0---53-3-1-340-1-
----23----2-23-1----
-0-001304-2---46-342

Generation = 12, Population = 195.
-4----1--3-6-33----2
-383-6-31-53---20--2
33333--------3-345--
--31--40--5-213----3
-0-1--33-361-2054---
-2---15--32---43225-
43-315-4-1------4--1
64124--0--0-534-6-14
------46----5-162-03
6-3----151---67-12-4
--114-2--2-435----72
2---1--5----2--4452-
-3232--2---2-21-4-4-
-9-3213---5425--0-3-
--35------3-2-----34
435--4---2---1252-4-
2022-32-4-222--4-41-
25---5-6--723456-2--
--01-----32----13-01
2------26-43325625--

Generation = 16, Population = 202.
36--3-3---4+-77--34-
3-+-46155--3------+-
5544----33--3-7-87--
-6--6---439831-3---3
--65--54---3--0-46-1
4256-17---2-2645-2--
-4452-350----4--4-53
66---842-3-3654--526
---32-6-341-6-2-6307
7-5-52+---1-388--424
41--4-34----757-----
3-6--4-7-12--3586-41
6-4---24-4--7--75--6
4+----7-10-8-----132
4---5-611-5538---44-
4-7---9-3---6----140
404367-3532-2-+5----
453-------8--5--3---
2----3-6-4-3-8--5213
---1--7-7--34368----

Generation = 20, Population = 176.
----56-----+39-5-4--
----4-3--4---2---7--
-7-6--5----9--7--94-
----83----------228-
-47---5-34------667-
6---32----3-4---5-83
-8---5----60-420645-
+617-+------+-----2+
--172469-6-78-4-+--+
-67362--52265-+-4-4-
--4-68---65-9-----72
4--42--732655-6+---1
-5663--42-3-84----6-
----4277--5-----2---
47-852-1--7--+65----
--85-6-3-4-3-559-1--
5--3--8---2--3+6--2-
--3256-------9-8--68
-123--184654--3-5-3-
-37-4-8--054-5-+----

