*** Life<Cell> 9x9 ***

Generation = 0, Population = 3.
---------
---------
---------
---------
---000---
---------
---------
---------
---------

Generation = 1, Population = 10.
---------
---------
---------
---000---
--01-10--
---000---
---------
---------
---------

Generation = 2, Population = 12.
---------
---------
---000---
---------
-01*-*10-
---------
---000---
---------
---------

Generation = 3, Population = 28.
---------
---000---
--01-10--
-00-0-00-
01-.-.-10
-00-0-00-
--01-10--
---000---
---------

*** Life<Cell> 50x50 ***

Generation = 0, Population = 50.
--------0-----------------------------------------
--------------------0-----------------------------
--0-----------------------------------------------
-------------------------------------------------0
---------------------0----------------------------
-----------0--------------------------------------
----------------------------------------------0---
0-------------------------------------------------
------------0-------------------------------------
----------0---------------------------------------
-----------------0--------------------------------
-------------------------------------0------------
------------------------------------------0-------
------------------------------------0-------------
------------------------------0-------------------
--------------------------0-----------------------
------------------------------------------------0-
-----------------------------------0--------------
----0---------------------------------------------
-----------------------------------------------0--
----------------0---------------------------------
----------------------------------------0---------
--------------------------------------------0-----
-------------------------------------------0------
----------------------------------0---------------
------------------------0-------------------------
-------------------------0------------------------
----------------------------0---------------------
----------------------0---------------------------
-0------------------------------------------------
---------------------------0----------------------
---------------------------------0----------------
-------------0------------------------------------
-----------------------0--------------------------
---------------0----------------------------------
-----------------------------------------0--------
-----------------------------0--------------------
-------------------0------------------------------
--------------0-----------------------------------
---------------------------------------0----------
-------0------------------------------------------
--------------------------------------0-----------
------0-------------------------------------------
---------0----------------------------------------
-------------------------------0------------------
------------------0-------------------------------
--------------------------------0-----------------
---------------------------------------------0----
-----0--------------------------------------------
---0----------------------------------------------

Generation = 5, Population = 609.
-0---0-------0--0-----0-0-------------------------
0-0-0-0-0-0----0-0-0---0-0--------------------0---
10---0---0-0----0---0---0-------------------------
*0----0-----0----0-------0------------------0-0-0-
0--------000-0-00-0-0---0-0------------------0-0--
--0---0--0-00-0-0--0-0---0----------------0-------
-0*00--0--0----00-0-0----------------0---0-0-----0
-01--0--0-------00---0--------------0-0---------0-
--0-0-00-0.0--00-0--0-0-------------00---0-0-----0
-----0-00-0-.--00-------------0----0-0----0---0---
0-----0----01-------0-0---0--0-0-0--0----0---0-0--
-0----------00-------0---0-0--0-0-0-.-0-0-0-----0-
0---------00-0------------0-----00-0-0-000---0---0
----0----0-00----0--------0----0-0--0.10-0----0-0-
---0-0----0-----0-0---0--0-0--0-00---0--0------0--
----0-----------00---0-0--0--0-0--0-1-0---0-0-0---
---------------0-0----0-------00----00-000---0---0
0-------0-------0---------------0--0-001100-----0-
-0-----0-0----------------0--0------0--00--0-0---0
0-------0---0-------0----0-0--0---0---------0-----
-----------0-0-----0-0--0-0------0--0-------0--0--
----0-------0-------0--0-----------110--0--1-0----
---0-0--------------------0-0------00----0--0--0-0
----0-----------0-----0--0-0-00-----------------0-
-0-------------0-0--00-0-----0-0-----0--0---------
0-0-------------0--0--1-------0-------00-0--0-----
-0--------------------0-0-0-0-0-00------0----0----
-------------0----0--0-0.000-0-011--------0-------
-0---0------0-0--0-0---0-1-0----0--0-------0------
0-0-0-0------0-0--0---0-*-0----0--0---------------
-0---0--------0-0-----010-0-000-0----0---0--------
---------0-----0-0----00-0-01-00----0-0-0-0-------
-0------0-0-----0-0--0-0---0-10------0---0--------
0-0------0-0--0--0-0--0---0*00--------------------
-0--------0-00-0--0-0-----010----0---0-0-----0----
-------0---0-00----0-----0-0----010-0---0---0-0---
------0-0---0-11--------0-0-----010--000-----0----
------00--0--00*0-0------0-------0---0-0----------
-----0-0---0--0*00-0---------------0--0--0-0------
---0--0-0--0---0--0----------0-0--0-0-.-0---0-----
--0-0-.--10-0-----00--------0---0-00-----000------
--00------00--0--0110--------0-000-0---.-0-0------
-0-0-0---0-0---0--00-----------0-00----0--0--0----
--0-0101--0-0--------------0----0--0--0-0---0-0---
---00*--0----00-------0---0-0---.-0-0-00-----0----
--0-0000-----0-0-----0-0---00------000-0----------
-----0-0-0----0-------0----0-0-.---0-00--0-------0
-00.000-010-----------------0--0----0---0-0-----0-
0-010-00010-------0-----------0-0--------0---0---0
-0---10-00-------0-0-----------0------------0-0---

Generation = 10, Population = 752.
*10-0-------*---010--0----------------------0-0-0-
*-------011-0*0-----------0---0------0---0-0-----0
*--1--0-0-*--0-01------0-----0------------0---0---
*-.11-----110------00-------0------01----0-0-0-0-0
.10-----1-001--1-1---0-----0--10------0-0---0-0---
0-**110-1.10**---1*.-10---0-------0--11--0-0-----0
10*1--1-.1--*----0--1-------01--0---1---0-0-0-----
*0*-110-1--.----0100----0---0------1*-------------
0-.-----*-.**0-0-*-*.-0--0----0-----0-0-----------
0-.-0-00-*.-.-1*.---*-0---0--0---1-1-.-------0-0-0
0-*---00--0------0--10-0---0-------110----------0-
--1-------00----1-0-0------0*--1-00*.*--10-010----
--0-0----0*-0.0---00--10-0.-----0-.-.**0*1--1-0---
0--------0-1.-----0-------.-110-----0*..1.1--110-0
----------------.---01--1--0.00---*-.--1111---0-0-
1-0-------00----0---0---1--0.---011*.*--1--010----
--0-------1-0-0--*----0--0--0-.---.1-0------0-----
0-------0---0-----0---0--0*-11----*0---1-*-1------
0---0---0-1-0-00---0--000--1--0---1-0---0-0-1-----
-0--------0-------------1-01.-0-0--01--*-0-----00-
--0---0---0-0----0--0-*-1100--0-----*---1---*---1-
---0----------------------0-0-1--*---*1------00-.1
--------0----0-------00-000-11.-1-1-*-0---.---1-*-
-0--------------0------0----10.--0-.1---..-----010
----0------0-----0-0-.*1---*0.---1--1---0---1-0-0-
--------------0---0-0-...-----.---1010-.-0-----0-0
--0---0-------1110-1-1*1-111-110---1------1-----0-
-----0---0------1-01.0*..1.----*1-0*--00*.-0-0---0
----0-------0--00101-----**.0*.110-0--------0-----
---0-------0-----0---*1-.-1-0-------0-01--00---0--
-----1-0----0-0--0-.-0*.01---00--0*--0----0---0---
-----1---0-----0---1---**-*11-..-----0100--0-0----
---0-10--0----0--------1---0-1--0--10-------0-----
---------0---01--0----0--*-*-11--1--0--100-0-----0
----0-.*11---0-1-----1*1--1*10-10.---0------------
-0-----1----0-000-0-----0---1-0--.-0-*-1-------0-0
------.0---1-1.-10-11-.-00---0-.1*-1-*------------
---0-----1--11-*1---0----0--10-1-*-01.-.11---0-0-0
----1--.--0----..---010-00---000------1-----------
-0-0-0-1-.-*---*10*----0---1-010-..---.--*01-000-0
0-.-1*.--*-11000-0.-0-0----0----.-0--11*-0--------
---1-1---*-----0-*-1.1---0--0---.--1*--...-.0*-10-
0-0.11-1*--.0-.**00----1-----1-..1---1-*-1--------
-0--1.-.1-0----*-1-----1--0-01-1--*-0-..0.-1-00---
01*....*-0----*0-----0--10--...0..-1*0-.11--------
---.-*-10---1.----1--0--1-----1*-1--.1-.11-0------
----1-*.----01--0-----01--**1..*0.-.--.---0-------
0*1.-.-1-101----0--10-----0--1-001-0110.-0-------0
-.-*-----*-*--10--------0----10-00------0---------
---1-.-*-----1----0------------0----01010------0--

*** Life<Cell> 100x100 ***

Generation = 0, Population = 100.
---------------------------0------------------------------------------------------------------------
----------------------------------------------------------------0-----------------------------------
--------------------------------------------------------------------------------------------0-------
-----------------------------------------------------------------0----------------------------------
-----------------------------------------------------------------------------------------------0----
-----------------------------------0----------------------------------------------------------------
--------------------0-------------------------------------------------------------------------------
--------------------------------------------------------------------------0-------------------------
----------------------------------------------------------0-----------------------------------------
--------------------------------------------------------------0-------------------------------------
---------------------------------------------------------0------------------------------------------
--------------------------------------------------------------------------------------0-------------
-----------------------------------------------0----------------------------------------------------
------------------------------------------------------------------------------------0---------------
0---------------------------------------------------------------------------------------------------
----------------------------------0-----------------------------------------------------------------
-0--------------------------------------------------------------------------------------------------
---0------------------------------------------------------------------------------------------------
-----------0----------------------------------------------------------------------------------------
--------------------------------------------------------------------0-------------------------------
-------------------------------------------------0--------------------------------------------------
-------------------------------0--------------------------------------------------------------------
-------------------------------------------------------------------------------------------0--------
------------------------------------------------------0---------------------------------------------
---------------------------------------------------------------0------------------------------------
---------------------------------------0------------------------------------------------------------
----------------------------------------------------------------------------------------------0-----
------------------------------------------0---------------------------------------------------------
---------------------------------0------------------------------------------------------------------
-------------------------------------------0--------------------------------------------------------
-----------------------0----------------------------------------------------------------------------
----------------------------------------------0-----------------------------------------------------
------------------------------------------------------------------------------------------0---------
--------------------------------0-------------------------------------------------------------------
----------------------0-----------------------------------------------------------------------------
-----------------------------------------------------------------------------------0----------------
-------------------------------------------------------------------0--------------------------------
---------------------------------------------------------------------------------------0------------
-------------------0--------------------------------------------------------------------------------
------------------------------------------------------------------------0---------------------------
------------------------------------------------0---------------------------------------------------
--------------------------------------------------------------------------------------------------0-
-------------------------------------------------------------------------------------0--------------
----------------------------------------------------0-----------------------------------------------
--------------------------------------------------0-------------------------------------------------
-----------------------------------------------------------0----------------------------------------
--0-------------------------------------------------------------------------------------------------
--------0-------------------------------------------------------------------------------------------
----------------------------------------------------------------------------------0-----------------
------------------------------------------------------------------------------0---------------------
---------------------------------------------0------------------------------------------------------
---------------------------------------------------------------------0------------------------------
------------0---------------------------------------------------------------------------------------
----------0-----------------------------------------------------------------------------------------
-----------------------------0----------------------------------------------------------------------
---------------------0------------------------------------------------------------------------------
--------------------------------------0-------------------------------------------------------------
---------------------------------------------------------------------------0------------------------
-------------------------------------------------------------------------------------------------0--
------------------------------------------------------------------0---------------------------------
------------------------0---------------------------------------------------------------------------
------------------0---------------------------------------------------------------------------------
--------------------------------------------0-------------------------------------------------------
-------------------------------------------------------------------------------0--------------------
---------------------------------------------------------------------------------0------------------
-----------------------------------------------------------------------------0----------------------
---------------0------------------------------------------------------------------------------------
-----------------0----------------------------------------------------------------------------------
-------------------------0--------------------------------------------------------------------------
---------------------------------------------------------------------------------------------------0
------------------------------------0---------------------------------------------------------------
----0-----------------------------------------------------------------------------------------------
------0---------------------------------------------------------------------------------------------
------------------------------0---------------------------------------------------------------------
----------------------------0-----------------------------------------------------------------------
---------0------------------------------------------------------------------------------------------
----------------------------------------------------------------------------------------0-----------
------------------------------------------------------------------------------------------------0---
--------------------------------------------------------0-------------------------------------------
-----------------------------------------------------------------------------------------0----------
-----------------------------------------0----------------------------------------------------------
-------------0--------------------------------------------------------------------------------------
-------------------------------------------------------------0--------------------------------------
----------------0-----------------------------------------------------------------------------------
------------------------------------------------------------0---------------------------------------
-------------------------------------0--------------------------------------------------------------
--------------0-------------------------------------------------------------------------------------
-----------------------------------------------------0----------------------------------------------
-------------------------------------------------------0--------------------------------------------
-------------------------------------------------------------------------0--------------------------
-------0--------------------------------------------------------------------------------------------
----------------------------------------------------------------------------0-----------------------
----------------------------------------0-----------------------------------------------------------
----------------------------------------------------------------------0-----------------------------
-----0----------------------------------------------------------------------------------------------
--------------------------------------------------------------------------------0-------------------
-----------------------------------------------------------------------0----------------------------
---------------------------------------------------------------------------------------------0------
--------------------------0-------------------------------------------------------------------------
---------------------------------------------------0------------------------------------------------

Generation = 10, Population = 1608.
-----------------01*.-0----------1-*-0------------------111-00--0-------------------0-----------1---
--------------------1------------1---0----------------0--0*---0-.*---.1--10-----------0-----00-000--
-------------------00--------------1-----------0-------0-.*0-01.*-0---------------0---10---0--.**-1-
---------------------------0-------0-------0-----------01.-1--...-1-.--1*--0------------0-00011101--
0-----------0--------------10----------------0---0------1*0---0-.*0-----------------10----1**.-1*.-0
-------------------------0-*-1----0------0---0-----------00----0.*1------0----------------001-00----
010-------0---0----------0-..10----------------0--0-----0--1-0---0---------------------0---.-----0--
---0----------------------------0---0------0----------00--.-0---10.0--0---------0-----------0-------
1--1-------00------------0-010------------------01--1.11..1.-*-01-1-0-----------------------1-------
-1---0----------------------------.-----------------0-11.*.1*00-0.------0-----0---0-----------0-----
-1-------0---0-------------0-----------0-------0-010-0..1*.101---.10----------------------0---10----
---1---------------------------0---.-------------------1110---101.11------------0---------------0---
11..1-0-0--0--------0----------------0---0-----0-0-0-0-1-.-------1-------------------------010---0--
---0----------------------0--0-------0----0-----------0---1------0--0---------------------0---------
...-..*-110-------0---0----------------0---------0-----0-0.----0-------------------------0---0-0----
10-*-1-----0------------0---0--.---0---00---0-------0---0-----0---------0-------------------0-------
.-1.1.--1--1-------00-----------------------------------01--00---0-------------------------0--0-----
-.-0*-0--*---0------------0---.------0---0------------0---------0---------0-0---------0-------------
-.--10---1-------0---0-----------0-------0-----0-------0-010---0----------------------------0---0---
0------.---0-----------0-----------.----0--10-------------0---------------0---0---------0-----1-----
10-.---------------0---1-------0---0---1---1-0---0-----0-0-0-----------------------0----------*1---0
-.-------------------0---0--------*--0----*--0--------------0-0-------------0-----0---------0-10----
1*0------------------0---0-------1-------0-----0-------0-0-------------0---------0---0----0--**..1-0
---0-------------------1------------0--1---0---0------------0---0-------------------0-------0-10----
1--1-------0----------00------0.1--------------------0---0-----------0---0---------0--0-0-.*0--1--00
-1---0-----------------------11.-10----------0---00-----------0-----0--------------0----0---0-0-----
-0-------0---0------0---00---------------0-------0-----0-----------0---0------------0--1*-*..---0---
---0-------------------------------11------.---00--10-------------0---0----------0---0-00-0-0-------
-----------0---0---0--11---0---*-------0---0---0---1-------------0---0----------------0--0-1------0-
--------------------0--------0----1--00---.------**--0--------------0---0----------0-0---00---------
-------------0-----1..---1---0---0-------0------00-------------0---0--------------0------0---0----0-
-------------------10---0------1---00--1-----------0------------------0---0------------0----------1-
--------------00--010-..------00--------------0---0----------0---0--------------0---00-----0--0-0---
------------------00-00-1-.----------0-..1----------0-------------------0--0---------------0----0---
------------0---1...1-01..--.---00--------------1-0--------0---0-----------1------00---0----0---0-1-
------------------01-00----------------0---*1---.-1---0----1-------------0-.-0-0---------0---0-0--0-
--0--------0--0---1-0------0--00---0----------.-0---1----0---0-----------0---0-------0--------0-----
--------0----------00-1-0----------------01--01-----1----0---0--0----------1-0--10---.-----0-0---0--
0---0----0---0-------..-.1---0---0------0-----------.-0-0--1---------------0------0-------0---------
------0---0---------0-1-0-------0----------00---0-*0*0-----0--0---0------------1--1--.----1---00----
--0--------0----------*----0----------0---0--0----.....-1-0------------------0--1---0---0*.-00------
--------0-------------1-------0---0---------0-0-1-*-.-1-----0---0----0------0------1-----..-----0---
------------0-------0---0---------------0-00--*-.1*-----0-0--------0-------0---0--*----.-010---0----
----------0---------------------0---------1---1-*-.10-*.--*---0--------0------0--0---0-1--0---0-----
--------------0----0--0------0----------0---*--0.--1...-.---1----0---1-------0---.-----------0------
0-------1---*---0----0----------------------0-0-110-.*1-----0----0------0----------0-0---0----------
----.---1---*----0---1-----0---0------0---0---.010-0-1----0--------1------0---.-------.---0---------
0-0---.---1---1---01---0------------------------10.0---------------0------10--.-------00----------0-
-------------------0---------0------01--0-----0-*.--.0------------------1---1---.----.--0---0----0--
0-----------0---0----0---------------------------0--1--------0----0-0----.------.---1---0-------0---
----1-------1-------0---0----------0--*1--------0-.1---0------------------0-------.0---0--0----0---0
--0-------*1111-----------------------------------1---0--------00---0-0--------0--.---0-----------0-
--------.1.101*0--0--1----0-----------------0---0---10-------------------------------0-----------0--
0-.-1----1-0.0.-1--------.---0----------------------0----0--------1---------..-0--------------------
0---------.-1------01--0.-----0---.1---0--1-------0------------------------------00-----------------
--1---0---*-1.-1--.--------1---0---------------------------0-------..---------*.-1-0----------------
--0-------*-1--0-----0------0---1.---0-------1--0------------------------------11.-00----0-----0----
--------0---.0---.-----------0----------------------------0------0--------001---0*---0--------------
------------10--11-------0--.-0-0----------0--10---------------------------------00----0---0-0---0--
---------------1---1------0-----------------------------0---0----------.1---000--.-0---------------0
----------0----1-01---.0---0-.1---0----------0------0--------------------------.-0-------0-----0----
----0------------10--.--1---0-----------------------------0----------0-0--0-----0-0----0---------0-0
------0-----0--01*-0-----1-0---00-----0-----------0---0------------------0---.-0-1-0-----0----------
--0---1--------1--.11--0--0---0------------------------------------------1----0-0.0-0.---1---------1
----1--10-------10-1---.--.-00------0---0-----------0------------------1--1*0--1-0-1---1---0-----1--
----0--------1-*...-11---0--1---0---------------------------------00-----1-1-0--0-00----------------
-----0*--0--0.11-*0.----**0---1--0----0----------------------------------0-------1------00-----0---0
------*----.-.-.-.-*0--*---01-0---------------------------------0---00-----0---------0-----0-0--0---
----.--0-------.-1----0*--0-*--1---0--------------------0-----------------------------0---0------0--
----*-------0-1.----0.---001.10-.---------------------------------0------------0-----------0-011--0-
0-11-1*-------01-*------0-0-0----0-------0------------0---0----------------------0------0-----------
-0*1-1.-.*---11*--0---0----1.11-------0------------------------------------------1-----0-----0--0---
--.-..--.10-1--*0---0-----1-.011-------0---0------------0----0-----------------1---0----------------
-01-.---1--01--10---1---.-...--1*--0*1--0----------------------------------0-------------0-------.--
0--1-1--0----11--00---1--**1--.0.---1-1--0-----------------01--0----------------00--------------0---
---*--0------00---0---0----111-------00--------------------------------------0----------0-------1--0
----.---------00----0--0---0*1.1----------------0---------0-.*0-0-------------0---0-----------1-.-0-
-0--0-----------1-----------.-1----0---0-------------0----0----------------------0----0---0--.0---10
------0-----0------------0----.--00---0-------0--10----0-0-1.-.---0-------------0-----------.---1---
--0--11----------.---0--------1------.-------------0---1--0--------------0-----0---0----0------1*---
----1--10-------100---------0--0---10----------01--0----*0-0.11-0----0------------------------------
---01--100-----***1----00---1---0--------------------1----0-111--------0---00----0---------------0--
-----11-----.-1-.00-------0---1--0---.--0--------0-01-1-.-.**-1*.--01--0----------------0-----------
-----000*.-0-.---1---00---0--00----------.---0---------1*--0--11------0--00---0-----------------0---
-----000-1----.-0-----0-----0---------0---0-------0---.*.----.-.1.1--11---------------0---0---------
--------00--------------0--0---0-----------1-0-0-----*1---011--1----1---0---1---0--------0----0---0-
---01-.1..------.---1---0---------------11-----0---1-1-..0--*.-1----0-10----0-----------0-----------
-------------1----.----------0-------------0-0-1--0*--*.-.0----1-0---1*------.1--10----0---0-0--0---
-----00--------0------0---0------------0---0-1---.-*0.-01-*-11---1----..1-0-100---------------------
-----------0-1-11----------------------------0-----1--111----1-1---1.*..0-0***1-1--00----0-0---0----
------------.*1--0------0---0---0--------0-----00---1.1*--01*--------0--0-01100---------------------
--------------0---0------------------0-----------0-.---.------0--00--*--*.*-100--00---0------0------
-0-----------000--------------0---0-----------0---0--*----0--11-------00-.--0-----------------------
----------------0------------------0---0---------0-0--------1---0---0--.-..-----0---0---0----0------
---0-------01--10-------0---0---0---------------0------0----0--0-------1---1---0--------------------
-------------------------------------0-----------------1------0-------0-10----0-0----00---00---0---0
-0---0-0-----00---0-------0-------0------------------1---0---0---0---0-------0---0------------------
-------------------------------------------0---------0-----0----------011--00-0---00---00----0---0-0
---0-0-0-0------0---0-----------0---0------------------0-------0-------0-------0--------------------
-----------------------------------------0-0-0-----------0-0-0------0-0-000-0-0-0----0-------------0

Generation = 20, Population = 3832.
-.*.11-0--1*.0........0-0**.--0*-.0.-*-.-0-0---010-....-...-......10.*-*.-00-0------.-*--*11-.-..1--
-*-1---0--0-*---.-..**.-*.*.0--*-.--0.0.-0--0---11.*1...1..01..-..*****-***-1.-0*.-0.*1-.*...1*..-*-
*1--0--0---1-*.*.10***...-..-1-..-..--****1*---.1.-1.-......1..*.*..1-01.***-*1---10.-.*.0..*-*.*-*.
1--1--------010.--**.---.--.---.**1-*-01-1-.-11.100***-***-.--....**....*..--*1*-1.---*--....*-.-.-*
11*.110-0--1----.-.*.-.--...--1.11-.11*0--0--*-*00.--*..*.0-..0*...1*--1***-*-1**....1........1.***-
0----*0--0-----0--0-...*-.1*-.1*.--*101-0---0*-10*101.*01-*-*...**...**-.0.1-.---*.-*11.....-***..--
-.*...0-0..1-----1.-.--...*..*....-1-*0.0-**--*10*.-1-*...--.*...-.*.*.**.-100-----*00-1.**.1-.--0-1
*001.1.--0--------01-.1...10--.**--.--.-1-0-11*.-10--.*-.1*1-*.-...-.*.0...1100--0--*0-1*1-*.-.*.-0-
****..1*---..---1-01.*...-**..1..-1*--1--**-1***...*....*.-.**...*-.*-.--1-10-10-0-0*1*.--0-..-**0.0
1..0--**0---10----1-.0-1-*..0**-...-1.0---.--.0-..--..***..**..--**----0-..-----------1.01.-00*..-**
...*1..*.0--...-0----1-1..-...1.10*10.-*1.---0.-.*....*...*.*.**..-*...1*-.*-0-------0-.-.**..*.-..1
-0-**0-.1---*0---0--1--11...*-.----...---0*-1-*0.0-**..1..*..0.*.*1.1.1.-01--------------0*-*00-11--
...**.-...-.1-0-1-011-----*..-*-111-*.-10*-1---*-***-...-*.1***1-.--..--101----------0---..**.-..-00
-.****-..*-.--*0-0110--.*-*...01-111-----01----0--.-.1.*-.*1-0*.1.1-0.*-0-----0------------*-1*.-*-1
..**...-.....0---..-1.-.*1-*1*100-*--00.--*.----11-**--0--..*--..**---1--0-------------001-*0.-.---1
*******1-...*--11-1--*..*101-....1.0*11*.1.1*-0--1.-*--.1.11*..**.*.---------------00----1.--..--1-0
.*.**.11**...1*--0*.--*-1.-*-..-0**--.0.-.*-10---011--*.**..*.-**1-11-----------------01*-.-.-*.-.-1
**..**0...1.---10.*--1--1*.....--*-*.--**.0.0*-0--0---.-.1*0*-.0110-0------------------00-1-*.**1**-
**-.1*11..1-10*----110.-1-1.*1-1.1**-.0.1**.-***----0*-.-**1-.-101---------0------------.--..-1*.*-.
***.*-1.0*--100*-11*---..10.-00..--...*11*.*.*1---0---*-...1.**-.*1--10-0-0----01-.*-.1-.0.0..*.*11-
**-*-*1*1--0--0--11-011.*1--*-**...*-.011--...0-1*00--0-11*.--1--.---0-0-------0--1-1*.-*..-.-..0*--
.*..-.1.1.11-1-1--0-..111.*.*-*10-.--*-.....**-*010---00--.1-00-1------------------*--0--**.0*....*0
.**.--*-.-0-0--11-*-1*-*---1-0**.-1-1*-...-.11.--0-0---1-*1--0---------0------00--0.*...--********11
1*0*.--1---.----------..0-0-....1-...-**.-.1--.1.-0-----0-*-1----10-0-0---0-0-111**1..1..111.-*-..**
**-.1--1--0----10111-..*1-0.-1.*-1.*.0101-.-1--.**0-110-------1--0-0-------0--..1-*..-*-***.*.*.-.-1
**.1*1---1----0---*0-.0.-*0........*-.-1-.**.*--1-1--0----11------0------------*1*..*1-.1..0.*0-*-*-
*..-*1----------*.***-*..-*--*.*.1.--*---*.*--1..---0*-.-----0------------1----....**--**....-.1**.*
*--.-00.----00-0..0-.-...-0*-0-..1...1.*-...*.*1--*.1-*.*-------------0-0-0-1--1-11---*.*...0...0-*1
*--*-0-1---01-*.--...-*.-*0--*1..1..11-.-.-*--.*-.-.-**.0-0--------------------100*-1.....-.**---1-*
*.-01------01-.1.*-*1-*.-.-.-.0-0-..-..0...1.*-......1.-0--1--0----------10---1-0--*0..*.*.*-**-.-11
--*1*-------*...*-**..-*.*-.1*1-.00**.01***01.-1..0**10.-0-1-----------01-1*0-*01---.*1.-.***..--1.*
101-0--------.*......**--..-....-*-.**0*1*...-.*1*.1.00--1-0*1----0000-0--.-**.*1*-*0.1..-*.*..*-1.-
--.--0---0--.0*..--..-..*.-.1**-*-*--0--..-01.*0*..**1-0--01--------------....10-*-.*.*.**...1...-*.
-.-----0*0-.*-*-*.*1**.*-..1.*-...-...1...-*...--.--..110--..1-----*-*0--0-.--*..1.1*-*-*.1.--*..0*-
1--00---.*.*.1-.-*..-1**.*.1.0..-..--.0-0-1.-*.0--1-.-.0-10*111----1100.-1*...-****--.1..**..-.1*-.-
-----0*10*.-.....*1..*-*01.*.*0-*--*..--*-...-*1*-.0**.-....-.**1-..-*.*..*...*0..-0-.*.-...*0-1.-.1
-0----0--10-*1--*.*..-...0--.*..*----0.....*-..1*0.1.*-.1.-.-.0------.-.--0.--0.-1*.0-*.1**0-0.*.1.-
--1---01-0----*.-1-.....*1.-.**-0-*1-*1*-..-1-**.1...--.*--.1--1.1-*1-0.....-.-...**-.-.111*1.1.1.1.
1*.*...1-1-00-.1.1.-....*1-.--..--11-*00.*-.*.*.1..0..**.11.0-.--1------1*--*1**1--1****..-....1*--0
--111*.0010-*-*..-...*.*11--1**0--11.---.1**.0.**.....-..--**0.----1-1*0010-*1.1.-....-.-.*.0..*-*-1
---*-0-*1--*.01-1---...*-**.-*----1..-*1..0-*-...*...*..*-1-*1*-.*0-11---0--01-1.-10-**..**-*1.-**--
--0-.0--1-.-.*-*-.**-..*0-*-1--0--1---*11*0-1*.1*.*....*.-0.-**----*-----.----**..1.1--...*.**1...-1
-010**-10-.*-*.--*1**-.0-.-*.-0--0--.--.-.1.1...*.......1.**-*..0-1-00000---1*--.*...--..**.-1-*-*0-
1-*-*0.-*--1-0--1-**1...-1--1---0-.1.-***....-...1**.*.*.*.*..*..1*---*..1*1**-..--..1-..-1*01--01--
-1-10-*1.-0.*.11.-0-*11*.*--001-.-1*-1---.--.*0-......*0*-.*......-.0--.-.01**--**..*-.-0-0*..-0-00-
*0.*-**-*-*.*.*-*..1-..-1*-*-0--1-----*1*0..*0.1....*...**.**1-.0**1.1...*--.---*-*.**1*0111--0-----
1*.-.*..*..*.*-.--.0....1..**10-0-*0*.--0-1.--...-****.-*****-*.1--.0*..-...-***--1*1..-..-***00-1-1
****..***0.*.*.**-.....*1*-1000----*-0*--*.*...-.****.-*--*-*1*00-.1.-11..*.***..1*.--..110*--------
-0*01-..-.1--*..--0*..1-.-.----0-00*1.-*.-0*.-.0*.-1.-.--*-*.*0-0-..*-0-*....*.0*-0...*-.*-.*--1.-0-
11***1.*..-.****.1--..10**010.0-110**-*.0--**0-*.-..*-.*11--*1-1-..-1..1...*-.-.......**..---0.---10
0**.-.-.-1..*-1..*....-01-.*..1-**.*-...--..101**-..0*.-0-*.00---0.**1..**.100**.1.-...*.**-10------
...-*.0.-*.*...0.-*.-**.10**0--001.*.-.***.1--*0-.**011-*-.--1-.*1.*-010.1-*-*.**...**-*1-.0--------
..*.*0.1...*....0*0*.*-1.--.*.-1---.-.--111-1*-..0....0--.-0--10*-*-0-01.**1***1..*--01..---------0-
...-.01.....*.**-.-1.-.*0.----*-.*.--0.*01--01--01...11-*--------..-.0-.-.*-.**--.--.-*.10----00-0--
.-*-0.1*-......1**0.*..*..**1.-1-1..*101..11-1.-0*-.0*1*--0------.*0--11.111*.*...---.----.------1--
.0**.0-1*0**....--.*.-.*-.0.--.*.011--1-*1--0--1-1.11-1----01*1.-*..*--0*-.-*-..*..**1.1--1----0----
1**0-*....*1..**.*1--**1-1..-**-...-110-010-1-.-..-..-1-0--0-1*1-1.*-0-*0-1*-1-.**.111..--0----1---*
1-.1-.00.0**..*....*-.*.1.1--***01...--*100----0*-.1.----1**-*.--*.1-1---.*...*-*.**-*1.0*---0---1-.
---1*****0-...0***-*...0--...-.-*1.*.---01-1-1.*--..10.-0-000---00-10.-..-*0***0...-0.-.-0-1-10--00.
01-----*.*.0*.**1...-0.11-10*-*.----1*0---1---0--0.1.0---0-1----*----11...--....1***1*-*-*---10.-01*
0-00.....--.--...1*-.-..-*01-...-*--.-.1.*--0-1-*-.-1-0---0---00--00-*1.-1.*..*.--..1*1*1.---.1*0**-
*-*0*-.---1-..1-*.-*.......*1*-...-0*01-------0---.-1--0---1-0------*0*1*..1*.*-.-.--..-.--*0...-*01
--.*1...--*..--*1**...--1*-*.*...-.1-0---------1----0---1-.-10--1-0*-01*1*......1.-0-.-1.**.1--*1.*1
***-1*.1*0............**0*00*1--1-.--0--------0---1--------0-----1*--.....**...01*0...1.*.*..0---*1*
-0-**--...-.1-1...-*****....*..1.0.*01--11---1----0---------*.--0-*.-.-......-.*0*...-..-*0*-*-*--0*
10-0*1*.1--.-*.*...*...11*-.**.-10*--0-10----------------0-*1.1-0-**00..-.-.10**-...--.01-0*01-.0*.*
**01....*-*...**-**.*.*..***...0-.-10100---------0--0---00-011---01--.1-0..1--*01.010--1*.1.*.**--1*
101-.*.-*.-...1.-.-...-.--.*.-1-...01-*---0----------0----11.*-1-1-0...*.-0**....--1.0.--*--**-.*-1.
0.10.-1.-.-..-.*....**.*.1***.-.-1*0-*1-*1-0-0---------001--*1---0--101.-**0.--*-..10.10-11-*.-1-*--
-.01..***.-.-.*.--.1..-.-.....**.*-.-...1-0---0----------0--0-.---1--*.*..1*-*-0..*.-.-10-1-....0.0*
-.*-***00.*-....1.-**.-....-0.-***.*0-0------0--0-------1-**.*.*0-0---111-101*-*1.011.01--00**-1.-1-
**.11**-..*--.*.--1**-......**-*-*.....00----1---0-----.----0*0-.-0--10--1-.0-*.**0*-.1**0--11-.1.-1
**.....-....*-.**-**--1...*..0*.-.......-1001-1-*--0-11-**0-..*--*--0------*--...*1*--..-11*--0...10
-*...-...***.--.-*--.0.1..*.....**1..*.-*.-0-.-1--00---1-.1--*.-.*-11010--0-.11*-.---110**..---.0**.
*1....-.-.*1.*.1-.*1-..-.*..-....---.0*--..--1.--.1-1--..**-..**..-.011-0-1-*---.---0-00.*-**--*1.--
.*1*...*--*.1.*-*0.-.0*.1...***.-*.**.*10.11--0--11*-1.1.0.*.**10-11-0*-1*-.-1-1..1--0-**10***-1*.*.
001*...1*-..11*..*-.1*--**00**.-.---0.*0-.1--001.*11--.1-**1..*-0**---.-----1--*0*---0-*0*-.....**.-
.11--**-.-.--1*--0.--1--.......-*..*...--.---0--***0*.-**0*1*.*-*-10-10***0*--*.-.*-1.---.*0.**..*.-
10*..-***.-.-***.*-.-.*--00-0*.....*1.-.0--11-*0...*.***1..*.***.--**-*010--.--.*---.-00*0*-*-0*..0.
**1-1..*....-***..**--*.****-.----*.1*--*----*-.*.-**--.-.-0**.-1*----*0001.*11.-0011-0--**1.1...*.-
-11..**1.*-.*11...-*-*-**---*.----.....*1111*.*1.1*.-.1.**.-..*-1.--1--01*0-1-*--1---0--*0-*1.1*-**-
10-**...**..**........1.1-.....-.0-.**-.-0*--.*1-.-.1...*-1-.**--.-1....-01...-00----1--.*-0-..--*.-
-.-...*.-*-**--...-..1*..-.*******0*-.1-11-11-.1.*1.....**...**.*.1...**.1**1*-1-*--0---.-101-**0--1
*--...--**.0**-..**....1-0--***--..*1******0.0**-*1-.--..-**-**.-.1--.--***-*.0.*--0------0-.10--11-
---*-1....-1.-.*..-*.-*0.1*-.-.1**-.**1.**-*1--.-1--.....*1.-.*....*...**-00..-.-1--0------0**1---0-
--.*-.*..-.1.1--..*1.1-...0---1*.-*--0-...*..-**-...1.........1...*..--0-.*.**0*.*0--0---1-.0**-----
*.........--*.***-11*.--*1.-01.-.1--**.1.*..1-0-*1-**.-...0...1.*-*-.-*-1.-1..11.011*0------.10--10-
*0..-...1-.***00***--.-1..1---.------*0*-.-..*0..-*....****.*.-*1*-.-..1..**-.....1..0-----1**111*-0
*-**-.*.-.1..-*11-1*--*0-0--*-.----10-.*1*.*-..*1.-.1.-*.*.-..1..*-.0*.....1-....*----01--0-*00-1-11
1--0.-..*-***.***-1*---1--0-.---0-0---0*-*..*.10..-.*......--..*-.......1*-.....**-*..--10-*-*-*.**1
00--.--.*.-...*-*-.*--.1.0*1--.-1---1-0---.**-...**.-.*.1-....-*0-...-.--**......0-*--*00-11----*-10
----0-.---*-*1.**1*0-0-11---------------0.0-0--.**...***-.--0*-..1**..-1.*.0...111**1---0---11--*--0
---0-1.-...1--***1**0-1.----0-------0----1..-...*-..-...01.-*.**.*-**-.-1..-.-.**.1*-1.111--10--101-
----00*---0..-.*.*-010--------0------------0000.*-..-.*.*....-*.-...*.***..*.-*0.***.*1-.1-**-0-.0--
---0--0.1..*....-*0.-1---1--0------------.---0-**--..*..-0-...*-1*-.0--.---.-*..--.-----0-.-0-0-0---
-------0-.-1--..*------------------0-0------01100.1.0-0.1..10.-1*...11-.....-1*--*---111*..**.------
------1-0-*-.1*-1--0----0------------1--1-.------0*.0*-....-1**-111--..-..0-..---1-11-*0--.0*-1-----
-------1--10.00--0-----------------0-0-------------**10.1-0-..1..-......*-*...-11-.--.*...1**-110---
------010--0--*.-*0--0----------------0--.1---0----*1-*-0---*.0*-111-.1..*-0-.0-00--0*01*.01-1------
---------000--.-*---0----------0-0-----0-1-------0--11------0*--*---*---.1...0*-0-0-111-*11*1---0---

Generation = 30, Population = 3476.
.....***.0..***.......-**...**......*.**...******-.**..*.*.**.....1-..1...-..-..-.-...*-*.-.-.....-.
....*--**.*-*-*-.......*....1*0..**.*.*.*..*1.1-.*.**..*.*.**.......*.***..-..-*.********........-.-
.-*...1..**.0.....-**.*......1...-.......*-.*1-.....*..*.*.....**.....1......**-.-**....*....-......
-1-..*.*.-..-.*..-.****-.-..*.-*........*.-.*..*..-...1....**...*...**.....-**.***..*.*.*...........
.**...-*-.***-0*.-..**.*.**.*....-1...**1.....-.-.*-.....*..*....**.**....**.*...........*...*..***-
..*--..-...**-*-*..1...*1.*........***.-*.1--.1*-**-.....0*0....**.....-.....*.-....**...*..-.....-.
......*.....-*---..1******...*.***..****.**.-.**....**...*1.....*.....*.****-1*-...*.*....*.....-**.
.*.***.-**0.1-10*.**1*.**.....*.*1*.**...**.*...**.1.*...***-.****.-.........***...*...*****......*-
..*.....**...*11***...........*.*1**.-.1-.*******.....*...**..**.*...1.**...**..*1*-.*...-*...*.*1.-
.**.1*..**.-.*.**1..*-0.-.....***.*-*..**..--..*..**.*...*.*.*...**..-.******.*-*.*-*.**.*..**..**.*
*.....*..*.....-1..-.....*-......*..-....*.******..*.*...**.*****...*..*.**..1....-0.*-*-.*.**..-..*
1-*..*..1-......-.*-.-0*.......*-.*.......**.....*.....*....*-**....*.*..-*..-..-*-1---*0....--..*-*
..*.**-..*-....**-*..*-.1**....-*..-..*.1.-.-...*...1..*..*...*--.....1-**1--.11-0*.*-**......1**..1
-..*......-*.*.....*-....*...*..1...-..*1..*-....*.......**.***.1...-*****--.0--.*1**0-**-*..***..-.
.....*****.*...--.....*...****......*0-.0..*.*.1*.....*..-.**01....-.1.*.0.--.11*.-..0-*.--.....*1.*
....*....*.**-*..*.**.*...*.*....***.*.......*.*--....-**..1.....**..0.11-11.-.-.-.*.**-.*.....*.***
...*...*.*.*.**....*..*......*..**.**..*.........**.*...*.*..*1*..*....**..---1.--0**-*...*..*.*.***
............**1.....-...*.....*.****....****1..1*..-.1..*.*1.***.-*....0-0-*1-*.--....*.-...*.......
..-**.....*0.......1.-..*-**.-*...*....*....-...*...*...-......-*.*-..---..---...-...*.-......*.....
........-...*..*--...**..*..*-1..1....***....*..*1*.00......**....*-.-*.**0*.*...*.........*...*.-..
..**..-*..*....*......***...***.......-...-..*.-..1***--*.**..*.1**.-.1-----0-*.**1........*......*-
*.....*.....*...-*-...**1....*.***.1..*.......*.....*-.1*..*1*0..*--..--01*---*.--.**.*.-*..-*..**.*
..***.*-.-*.-....-*............***.**.*......*.....***.....*.---**..10*101-...*0--***.........*.....
.....10..1.....--.**0*......*......**.***....***...-1-.0.-.-*-**---*--*-00**.0*.......***.-..0*.*...
.*.*.**.**-..-1....*.**.-1-**..........-.*.**00.*..1**.**...**.1..-*0--0-.1-*.*..-...-.**.....**1...
........0*.--.-.-..1-*..1**..*....*..*-*-****..-.1***-**....**1..-*--.--**0.*-.*...*..........1**...
*..1.**...-..*-....**....1*.**.....*-...1**.--*.*1-1-.-*0..**.-.*.--**.**.*.*..*...*.........-..*...
*.**1.-*.*.*-..-..1-.-..*-.*1-.***....**......*1-*..**.*...1*-*0-...-....-..**0*-.1-...*......***-..
*.*.-*0.-.*-*-*.*......****.1*.**......**.....*...*.*...*..*11-1..-.-11**-.**1*...*-...*.***...*1.-.
.*..-1--.-*0..***....-.*.*..1.01*...1..-.***...*.**..1..*1...-0.-*.10-1.1*.-.***-0*....*.***.*.1.-..
.**...-*...0*.........**..*.*...*-....0*......-*..1***-.-*.-...*.-0--*.*.**.--*..*-1.**...*.....-...
...*.*.*-.*.*.**.......-*.*..*....**...*..**.*.**.*...*..**...*.-*...**.1**..*.**.*.1...***..*..0*..
.*.*...1-.*.*.****...-......*.*-.0.**--...-....**.*.**..01*.11.*.....1*...**.**11*..*.....*.*-..*..*
.***.-1..**..**.***...........0*.**.*.....-*...****.*.**.-.**.--**..-.*.*.**.******.*..-...*.......-
...***.*.***..1*..............**.***..-...*.1...*..*...**.....**.**...0*..**..*..**-1.....*..1.-.-..
.-.*0...-..0*.*.***...*.-....***..-**.0-..**...*...-*.*..*..-.***-*...........*1...-**..-**..*.....-
-0-....*1*.*..--.**......*...*....***.*....*.....-***.1.***...--..--.....*.*...**....**.**..*.....*1
1-*-**-.....-1....*......*.*...1***1-...*..........****...*..*1...-..-1****.**.*....*.-.*.....*.....
...**.****1.*..-..*-....*.1**-......*....*-**......-.*****..**........*1..-.****.*-**..*......***...
..*...*.1..1...*......*..*..*....-*-.1...*.***.......**.*1...*...*.-.....****..1**.*....1*..1*..****
.*..01**..**.-....--....*.*...-*.*1..**...*..1.***..**........***.**.*...-.-.....1-*-....**..**...*1
-.-***1-*.*-....*.*.1....*.*.-1-0*..11*....**.......***...-.****-1**..*.**1-*.........1...*..**...1.
*.--*.-**...*...1.1*.-....**.*-..0-.*--..*.**.....**.***....-***.*..*-**..-**.....***...*...1****.*.
.0*1*1.........**1......-*.-.*-.*....**...***....**....*...*.*...*.*....**........1...-***...-***..-
***..**.*....*-*..*...*.**....********01.......0..*..*****...**.*.-.*..*-.....*..**...*..*.*.*-....*
**.*.*.*......*.....1***1**.*1-.*0.1*1.-...*.*.**..*..*****........*.**......1*-**..........0*.**..1
***-.....**.***....-.**.-...*1*..1*1.*-.....**..*1*....*..**.......*.**......**.0-.....1....***-.--*
..**.*.*..*..**.....***.......-**...*......*......*...*.*........-.-.*.....*.**..*.*.....*0.*..0*..1
...-1*..****-...*.....*..-.-..**..*...**.-*...*1..-....**.1*.........-..*.*..**.*1*....-*.*.**....*0
1..***..**.......*.***....0.-..**.*.....-.1.*--.*....1.....****....*.....***.*1.**...*......*..*..*.
**...*..1*..*.....*......0.....**..*-.*.*-**...*...*...**..*-.*.-1.***.....*01*.*.**..***.***0.--*0-
**..**-..*.......0***...1...0.-1....*-.**.*-...*....**1..*......*1...-.***-*..**...*..*.*-.*0-...-1.
*..******.......1.**...*....**.*..1....-.-.-**-....*..*.-..*1.**.-..1..*...*.......-***.**.*.*0*0*-*
*.**.0*..........**.....*..-1-*...........--.*.0.....-*.*-..-1*......-.......**...-.......***---1*-*
*.......*....**1**.**............-.....*.......*...*0...-11.*-*.1........**..***...1...-1*.---1-.**-
*-...1.*.0...*.*.-**.1..*........--..1.-...-.----..*.-..*-.-*..**..**.0**....-*.........-1.0-*1**-.*
*.......*.**.*.....-....*.......*..1..-.*.....*.*.**..*--.1.0.*.*.**....-*..........*....***--..-.-*
*-****01.-...*...*..-..*1.-*******...*.*.0-.***-**....-1.......1...*.**.........*...1......*-.-...1.
..*-........**..**.**....-.**-..*.**.1.*11.**.*..**.*1.*-*--.-..0**..*...*.*...***.....*......*...1.
1**-.01...**..***.....**.-*..-..*.****1...1**0*0...**.**.*1..1.-.1*-..*...*-**.**.....-....*....**1.
0.-****..1-....*.......**.-.....**1...*1..*01......-.*.**10.-...*.*...*..1........*...-***0.****1**.
..***-...0*.***.*.-.....*.*...*....-..**........-.**-*.*.-*.1...*111.......-.....*.......*1.....**-1
-*.**.....*....*......---*..*..*...*.1..**.**-*..-*0.-.-.*.**...*.-.**.......*..**.-**1***.......**.
*..1*........**......*.*1..1*...*1.-.1...--1-0-.1**.**--..*..01.-.....*.....********..*.*....**.**..
**..*.....-.1*-...-..*...........*..1.......*......-.--.-...***.....-.*....*..*.**....**..*.1**.*..*
*.........***........*..*........*.*..-.*11..-1.--.0--.-.....*1.*.....**-*..*-..1...1**0-.**..**...*
.....*...-..........********...--.0.*....*.0.-.-0*0.*.-*.1...1*.-*...*1.*....*....-...--.**..****1..
.....*....**........*..**..**0-**.**...*...*-0----..--1*.*....-..*.......*....*...--.1.1-*-*..*..**.
...0.0**.*......**.**...**.**..***..***...*-1.....*..*-.*-*1..-*1.-**.........-....-.**-1*.-..*.1*-*
............*....*......**.*.....**.**..*****....1..--..0**-*-*1.-..**......-.**....-.-****..*...*-*
..**....-...*...*.-......*.-..1*..*..*1.**.01.-...*.**--.*.......0....*.***.*.*...-...0*...-.......*
*.**....**.**...*.*..*...**.**.*..*...*.*.*1.*-**-*-*11..-**..1-*-**..1*.*0.**....-.-....-.1.......*
*......1*.....*...........*..1.*1....*....**.**..1**-***.*-1***...0.....0**..-......-.....1.-.-...*-
***..........0**-.1..*....*..*..*....*..**-*..1...1*...***.--.*.******..--....**..*.....***.1...0.*.
*..............***....*-**...*..*..-.....**...*......*0*..*...*...*.*...........*1-*-..*.*1..1*...-.
***.....--.......1****.**.......*.....*...-.1*.*1.**.....0..*..*-*...1..-.........*..-.**.-...**....
*-.*.....-*................-....*.*.***1.*..*..*......**-.......*......-.-1*.**...*-*.*.*....*.*....
.*.....*.-.*0...-..***.****...**..*.**..**-........-..*.*.....**....-**....**..*.*.-1***-...**....*.
.*...*.**.*..****.-***.-*-..****...**.***..****..*.*.*...*.......-.*..*.*.*1***.**.*...*...****.**.*
......*...**-*..**........*...*.1....******.-**.*.1*.**.0.**.*..*.-..*.--1....-.1*...-.*..**..***...
...*.*....**.-**...****..*-*.*.*...*....**.1**.*..*....*******.*..**...*.*.**-.1-***...*..**..*....*
*-*......**..*....*...*..**....-*-0...*...***.*.*.*...*.***0*..-0**-.**.*...**1*.*100..-*..-1...*..*
-.*.....1.1.**.*..**..*.*.......**-.......-.*1*****....*......***....*..*.........-**--0*1*..***1.1*
...***...**..........****...*...*...........*.**0..*.0-.*....****...-..1.***..-**---.*-...*..1...***
..1.*-*.**1...***...*0*-.1*1*1*....**........1-.*..*..***...1*........***........*.*....-.*..*.0....
1....*.*.0*.*..*....**..**.*.-...*.*****..*.....**.........*.....*...-**.**..*.*.*.*..*.*.*...***10.
.*...*.*..*.*..**-*.**...**-*..1.*-..****.*....**..***........*...**.*.****..*.....-..-1..0-...*1-*-
*..*...*..*.**.1....*..*..1....*.*-.1*....*.*.1*.-**..........-**.*.-..*.*........***.**.--....**.-.
*.*....**.**...**.*.....*.--.1*..-*.......*.0**...**...*...-..**.*.....**........*.-......-**..0*1**
**0*.-.**...**...--*1--..**1..--*--.-.1..*.*......**...*...**.*....*............****.*****-...1***.*
-..-.***.....*.*...*.*.****....1.-.......1...*...***....1*..**...*..****-...**...11.0..-*....-.1.*.*
*...-..*..........**.*.1****0-.-.-*0.-..**-..*-.****....**..0.....*....*...1*..*.....1.--*1........*
..-.1..*..**.....**.1*-....****0--*.*-..-*...*...*..**..-.....*...*..*..*.......*.....*...***.-.*..-
--.*...1.-**.........**..--*-*.-*.*10...1..*.....*.*-...*....1*.*.**..*.**.**.*.**....*1*..*.*.-..1*
.*10-..*.***.*.*....*.-..**-11.0*0-0.-1-**-*10-.........-.1..***-*..-....*1*-**.*...-*1-.*..--**-..*
00-..-......1****-*1***-*10-.--0--*--.-*-*.*....1.**..-.....1......*.**.*.**.....**.*........**-.--*
0-.*1.**-..*.-.....10...-..-*-10-1.--1*.**.1-..-1.....-.*.**.**0.-.*.**-.........*1.**.**-...0*.0--1
-.-*.*0....*.-.*..1.-*.00*--..1-.011*1.0*0******--...**...-*.**..0**.***...**....-****...*...-**..**
00*..-1....1....-....-.-.-**1-.1*..-.-11..-11----0-**-.1.1***.1***-.......*.*.*...*.*.0...-..**--.*.
----**.01.**.-.-*-1-.-101---*--*-10-1----...1-1*-.......1.1....***.1...0...********.***..**.**.1.--*
