*** Life<Cell> 50x50 ***

Generation = 0, Population = 96.
--------------------------------------------------
------------------------------0-------------------
------0-------------------------------------------
-0-----------------0------------------------------
-------------------------------------------------0
-------------------------0------------------------
-----------------------0---------0----------------
--------------------------------------------------
---------------0-----------------------------0----
---------------------------0--------0-------------
--------------------------------------------------
------------------0-----------------------0-------
--------------------0--0---0----------------------
-------0------------------0-----------------------
-----------------0----------0---------------------
--------------------0------------------0----------
--------------------------------------------------
-0----0----------------------0-----0------0-------
----------------------------0----------------0----
-----------------0------0-------------------------
------------------0-------------------------------
-----0-------------0------------------------------
--------0---------------------------0-------------
--------------------------------------------------
--------------0------0-----------------------0----
-------0------------------------------------------
------------------0---------0-------0-------------
---------------0----------------------------------
---------------------0-------0--------------------
--0--------------------0-------------00-----------
--------------------------------------------------
-----------------0-------0------------------------
-0--------0------------------00--------------0----
------------------------------------0-------------
--------------0------------00--------0------------
-------------------------------------------0------
-----0---------0-------------------------00-------
------0-0-------------------0---------------------
----------------------------------0---------------
------------0-------------------------------------
---------0----------------0--0-------------------0
0-----------------------------0-------------------
--------------------------------------------------
0-----0----0-----------------------0-----0--------
-------------------0-------------------0----------
--------------------0-----------------------------
-0---------------------0-----0-0------------------
--00-----------------0----------------------------
------------------------0-------------------------
---------------------0----------------------------

Generation = 1, Population = 331.
------------------------------0-------------------
------0----------------------0-0------------------
-0---0-0-----------0----------0-------------------
0-0---0-----------0-0----------------------------0
-0-----------------0-----0----------------------0-
-----------------------00-0------0---------------0
----------------------0-00------0-0---------------
---------------0-------0---------0-----------0----
--------------0-0----------0--------0-------0-0---
---------------0----------0-0------0-0-------0----
------------------0--------0--------0-----0-------
-----------------0-00--0---0-------------0-0------
-------0----------00-00-0---0-------------0-------
------0-0--------0--0--0-0--0---------------------
-------0--------0-0-0-----00-0---------0----------
-----------------0-0-0------0---------0-0---------
-0----0-------------0--------0-----0---0--0-------
0-0--0-0----------------------0---0-0----0-0-0----
-0----0----------0------0--0-------0------0-0-0---
----------------0------0-0--0----------------0----
-----0------------------0-------------------------
----0-0-0-----------0---------------0-------------
-----0-0-0---------0---------------0-0------------
--------0-----0------0--------------0--------0----
-------0-----0-0----0-0---------------------0-0---
------0-0-----0---0--0------0-------0--------0----
-------0-------0-0-0-------0-0-----0-0------------
--------------0-0-0--0------00------0-------------
--0------------0----0-00----0-0------00-----------
-0-0-----------------00-0----0------0110----------
--0--------------0-----0-0-----------00-----------
-0--------0-----0-0-----0-0--00--------------0----
0-0------0-0-----0-------0--0110----0-------0-0---
-0--------0---0------------0000----0---------0----
-------------0-0----------0110--------0----0------
-----0--------00-----------00--------0---0--0-----
----0---0-----0-0-----------0-----------011-------
---------0-----0-----------0-0----0------00-------
------0-0---0---------------0----0-0--------------
---------0-0-0------------0--0----0--------------0
0-------0-0-0------------0-00-------------------0-
-0-------0----------------0----0-----------------0
------0----0------------------0----0-----0--------
-0---0-0--0-0------0--------------0-0--00-0-------
0-----0----0------0----------------0--0-00--------
-0-------------------0-0-----0-0-------0----------
0--0----------------000-0---0---0-----------------
--110---------------0-000----0-0------------------
--00-------------------0-0------------------------
--------------------0-0-0-------------------------

*** Life<Cell> 10x10 ***

Generation = 0, Population = 60.
------0-00
0-0--0-000
00-0-00000
00---000-0
-0--00-000
0--0-0-0-0
-000-00-00
-000-00-00
-0--00--00
-0000-000-

Generation = 1, Population = 53.
0-0----0--
10--01---1
1-0--11-11
-100-111--
010-1101-1
-0-10-01--
--11-1-0-1
011-01--11
0-00--0-1-
0----01---

Generation = 2, Population = 52.
10-0000-00
*1001--0-*
*-1--*-0*-
0--10*----
1----*-*--
-1-----*0-
00---*010*
--*-1-----
-0-1-01-*-
100001-00-

Generation = 3, Population = 54.
--0-1-101-
.*11-1-1-*
*0*00*--*-
-1-*-*1-0-
*--0-*-*--
0*0----.--
1----*-*1*
01*0-1-0-1
-1-*--*0*0
*1-1--11-0

Generation = 4, Population = 51.
--10-0*1*-
*.---*0*-*
*-.--.--*-
0*0.0.*110
*1-1-*0*--
1.1----*00
-0-10.-*-*
-*.--*0---
0-0*0-.-.1
*--*01--01

Generation = 5, Population = 56.
10*1--.**-
.*111*1.-*
*-.-0.-0.1
1.1*-..**1
.---1*1.0-
*.-100-.--
-11*1*-*1*
-*.-1*1---
111.-0*-**
.1-.1*111-

*** Life<Cell> 5x5 ***

Generation = 0, Population = 25.
00000
00000
00000
00000
00000

Generation = 1, Population = 12.
-111-
1---1
1---1
1---1
-111-

Generation = 2, Population = 12.
-*-*-
*-0-*
-0-0-
*-0-*
-*-*-

Generation = 3, Population = 12.
-*1*-
*---*
1---1
*---*
-*1*-

*** Life<Cell> 20x20 ***

Generation = 0, Population = 200.
0-0-0-0-0-0-0-0-0-0-
0-0-0-0-0-0-0-0-0-0-
0-0-0-0-0-0-0-0-0-0-
0-0-0-0-0-0-0-0-0-0-
0-0-0-0-0-0-0-0-0-0-
0-0-0-0-0-0-0-0-0-0-
0-0-0-0-0-0-0-0-0-0-
0-0-0-0-0-0-0-0-0-0-
0-0-0-0-0-0-0-0-0-0-
0-0-0-0-0-0-0-0-0-0-
0-0-0-0-0-0-0-0-0-0-
0-0-0-0-0-0-0-0-0-0-
0-0-0-0-0-0-0-0-0-0-
0-0-0-0-0-0-0-0-0-0-
0-0-0-0-0-0-0-0-0-0-
0-0-0-0-0-0-0-0-0-0-
0-0-0-0-0-0-0-0-0-0-
0-0-0-0-0-0-0-0-0-0-
0-0-0-0-0-0-0-0-0-0-
0-0-0-0-0-0-0-0-0-0-

Generation = 4, Population = 38.
----------------*-*-
----------------0---
----------------1---
0-0-0-0-0-0-0-0---0-
----------------0---
----------------0---
----------------0---
----------------0---
----------------0---
----------------0---
----------------0---
----------------0---
----------------0---
----------------0---
----------------0---
----------------0---
0-0-0-0-0-0-0-0---0-
----------------1---
----------------0---
----------------*-*-

Generation = 8, Population = 50.
------------*1*-.0.-
------------0-0-*---
------------1-.-*---
------------0-------
------------1-.---1-
------------0-------
------------1-------
0-0-0-0-0-0---0-0-0-
------------0-------
------------0-------
------------0-------
------------0-------
0-0-0-0-0-0---0-0-0-
------------1-------
------------0-------
------------1-.---1-
------------0-------
------------1-.-*---
------------0-0-*---
------------*1*-.0.-

Generation = 12, Population = 82.
--------1-*-.-**.0.-
--------0-----*-.-0-
--------0-----.0.0--
0-0-0-0---0-------0-
--------1----1.1*-*-
--------0---0---0-.-
--------1-.1.-.1-1.1
--------0---0-0---*-
1-1-1-1---.-*-.-----
--------*-------*---
--------*-------*---
1-1-1-1---.-*-.-----
--------0---0-0---*-
--------1-.1.-.1-1.1
--------0---0---0-.-
--------1----1.1*-*-
0-0-0-0---0-------0-
--------0-----.0.0--
--------0-----*-.-0-
--------1-*-.-**.0.-

Generation = 16, Population = 112.
----*-1-.-.0.*.*.*.-
----0-----1-.-.-.---
----1-.-----*-.*.0.*
----0---0---0-.1.---
1-1---.1.1.--*...-.-
----*---*-----*0.1*1
----*---.-.**-.*.-.1
----1-.1*1-1*0----*-
*-*---.00-.-*-.1--*-
.-.-.-1*.1--.--1*1-1
.-.-.-1*.1--.--1*1-1
*-*---.00-.-*-.1--*-
----1-.1*1-1*0----*-
----*---.-.**-.*.-.1
----*---*-----*0.1*1
1-1---.1.1.--*...-.-
----0---0---0-.1.---
----1-.-----*-.*.0.*
----0-----1-.-.-.---
----*-1-.-.0.*.*.*.-

Generation = 20, Population = 172.
-1-1.*1-.-.-**.....-
1-*-0-1-0--1.1.**1*0
0--11-*0*-.1.**..0.*
1-.1-1------.-...--*
---0--.-.1.1-**..-.0
1-.-.1*0.--01**1.***
11*1.*0-.-***-...*..
0-10*0*-.*-*..0---*-
.-.0*0.*1-*0*-..-1.0
.-.-.....*.-.*1.*.*.
.-.-.....*.-.*1.*.*.
.-.0*0.*1-*0*-..-1.0
0-10*0*-.*-*..0---*-
11*1.*0-.-***-...*..
1-.-.1*0.--01**1.***
---0--.-.1.1-**..-.0
1-.1-1------.-...--*
0--11-*0*-.1.**..0.*
1-*-0-1-0--1.1.**1*0
-1-1.*1-.-.-**.....-

*** Life<Cell> 20x20 ***

Generation = 0, Population = 200.
-0-0-0-0-0-0-0-0-0-0
-0-0-0-0-0-0-0-0-0-0
-0-0-0-0-0-0-0-0-0-0
-0-0-0-0-0-0-0-0-0-0
-0-0-0-0-0-0-0-0-0-0
-0-0-0-0-0-0-0-0-0-0
-0-0-0-0-0-0-0-0-0-0
-0-0-0-0-0-0-0-0-0-0
-0-0-0-0-0-0-0-0-0-0
-0-0-0-0-0-0-0-0-0-0
-0-0-0-0-0-0-0-0-0-0
-0-0-0-0-0-0-0-0-0-0
-0-0-0-0-0-0-0-0-0-0
-0-0-0-0-0-0-0-0-0-0
-0-0-0-0-0-0-0-0-0-0
-0-0-0-0-0-0-0-0-0-0
-0-0-0-0-0-0-0-0-0-0
-0-0-0-0-0-0-0-0-0-0
-0-0-0-0-0-0-0-0-0-0
-0-0-0-0-0-0-0-0-0-0

Generation = 4, Population = 38.
-*-*----------------
---0----------------
---1----------------
-0---0-0-0-0-0-0-0-0
---0----------------
---0----------------
---0----------------
---0----------------
---0----------------
---0----------------
---0----------------
---0----------------
---0----------------
---0----------------
---0----------------
---0----------------
-0---0-0-0-0-0-0-0-0
---1----------------
---0----------------
-*-*----------------

Generation = 8, Population = 50.
-.0.-*1*------------
---*-0-0------------
---*-.-1------------
-------0------------
-1---.-1------------
-------0------------
-------1------------
-0-0-0---0-0-0-0-0-0
-------0------------
-------0------------
-------0------------
-------0------------
-0-0-0---0-0-0-0-0-0
-------1------------
-------0------------
-1---.-1------------
-------0------------
---*-.-1------------
---*-0-0------------
-.0.-*1*------------

Generation = 12, Population = 82.
-.0.**-.-*-1--------
-0-.-*-----0--------
--0.0.-----0--------
-0-------0---0-0-0-0
-*-*1.1----1--------
-.-0---0---0--------
1.1-1.-.1.-1--------
-*---0-0---0--------
-----.-*-.---1-1-1-1
---*-------*--------
---*-------*--------
-----.-*-.---1-1-1-1
-*---0-0---0--------
1.1-1.-.1.-1--------
-.-0---0---0--------
-*-*1.1----1--------
-0-------0---0-0-0-0
--0.0.-----0--------
-0-.-*-----0--------
-.0.**-.-*-1--------

Generation = 16, Population = 112.
-.*.*.*.0.-.-1-*----
---.-.-.-1-----0----
*.0.*.-*-----.-1----
---.1.-0---0---0----
-.-...*--.1.1.---1-1
1*1.0*-----*---*----
1.-.*.-**.-.---*----
-*----0*1-1*1.-1----
-*--1.-*-.-00.---*-*
1-1*1--.--1.*1-.-.-.
1-1*1--.--1.*1-.-.-.
-*--1.-*-.-00.---*-*
-*----0*1-1*1.-1----
1.-.*.-**.-.---*----
1*1.0*-----*---*----
-.-...*--.1.1.---1-1
---.1.-0---0---0----
*.0.*.-*-----.-1----
---.-.-.-1-----0----
-.*.*.*.0.-.-1-*----

Generation = 20, Population = 172.
-.....**-.-.-1*.1-1-
0*1**.1.1--0-1-0-*-1
*.0..**.1.-*0*-11--0
*--...-.------1-1.-1
0.-..**-1.1.-.--0---
***.1**10--.0*1.-.-1
..*...-***-.-0*.1*11
-*---0..*-*.-*0*01-0
0.1-..-*0*-1*.0*0.-.
.*.*.1*.-.*.....-.-.
.*.*.1*.-.*.....-.-.
0.1-..-*0*-1*.0*0.-.
-*---0..*-*.-*0*01-0
..*...-***-.-0*.1*11
***.1**10--.0*1.-.-1
0.-..**-1.1.-.--0---
*--...-.------1-1.-1
*.0..**.1.-*0*-11--0
0*1**.1.1--0-1-0-*-1
-.....**-.-.-1*.1-1-

*** Life<Cell> 25x25 ***

Generation = 0, Population = 493.
0--000000000000000-00000-
00-000-000-00-000000--000
00----0--00-00-0000-00-00
-00000000-00000-0000-0000
00000000000000-00-0000000
000000-0000---00000--00--
0000-0--000-0-00000-00-0-
-00000000000000000000000-
00000-0--000000000000-000
-000-00000000000---00000-
000000000000-00--0000-00-
0--00000000----00000-----
0-000-0000-0000000-00-000
000-00000000-00-000000000
-00000--000000000000-0-00
00000-0-00000000000-000-0
0000-0----00-0000-0000000
00--00000000000-000000000
0000000-000000000-0000000
00000000-000-000-000000-0
-00--00-00000000--0-00000
00--00000000--0000000-00-
0000-0-00--000-00--000000
00-000000-000000--00000-0
-00000000-0000000000000--

Generation = 1, Population = 281.
1-0-11-111-11-111-0---1--
1---1---11--1-----1-00---
-1---0100---1-----1-1--11
011111-1--11--1-11---11-1
------1--1-11---1-11---1-
1---110---1------11-01-00
---1---01-10101---10-1-10
01--111-1--1-1-----1-111-
1------001------111-1-1-1
01-1---11---1-----01---1-
-11-1-------0--0--1--0--0
--01-1-----00-0-1-110---0
-0-11-1--1---111-1-1-0-1-
-11-1111--11-11-1-1-111-1
01-1--0-1---1--1--------1
---------1--1----11------
1-1--100-011-1-11-11---11
1100--1-11--1-1-1-------1
1-11--1-----1--1--1----11
---11--1-1-1-1-101-1--1--
01--011------1-1-0--11-1-
-10-1-11-11100--1-111-110
1------11-011--1--01-1-1-
-1-11-1-1-----110-----101
---11111---11111--1111-00

Generation = 2, Population = 292.
*----*-**--*--*-*-100--0-
*-00*000*-0--00000---1-00
0*-00--1--0-*00-0-*-*0-*-
1*-----*--*-00---*00-**-*
-000-0*-0---*000*--*---*0
-0--*---0-*0-00--**-1--1-
-00-0-01---1-1*0----0-0*-
-*0-*-*----*0*--000*0-*-0
-0-000---*0000-0*----0*--
--0---0----0*0-00-1*-0--0
-------00----0---0-0--0-1
-0-------001-01--0-*10--1
01----*-0------*---*-10-0
-**----*--**0----0-0***0*
1-0---10--0-*----0--0000*
-000-0-0-*--*----*-----0-
*0*-0*1101-*--0*-0-*0-0*-
*---0--0*---*0--*0-0---0-
*0-*-0*-0---*--*0------*-
-0----0-----0*-*--0----00
1---1--0--0----*-1-0-*-*-
0-1-*0--0***1-00-0-*--*-1
-000--0--0-*---*00--0---0
-----0*-*00-----10--00*--
-00-*-**--0*--*--0*--*0--

Generation = 3, Population = 305.
.000-*0.*1-.1-*1*0*-1-11-
*011.1--.-1------1100*-11
1.0------0--.--01-.0.10.1
-.--11-*-0.-11101.1-0*.-*
-1-101*011--.-1-*01.-0-.-
1-0-*---1-*-0110-**0*1---
01-----*----1*.1-------.-
0.-0.1*--0-.1.-0---*-1.1-
11-1110-0.---1--.-----*0-
----0---10--.1---0**-1011
-11----11-0----0-11--0---
-10---0001-*--*-11-*--00-
1*---0.0----01-.0-0.-*-1-
0.*0--1.-0*.-1-011--...1.
------*11-10*0--0-0--11-.
0--101--0*--*0000*10-00--
*1.0-.--1--*0-1*1--*1-1*1
.10-101-.---*1-0.--1----1
*--.01*010-0.00*--10--0*-
01011-1-0-01-*-*-----0111
*-00*-----1--1-*-*01-.0.0
11*0*1--1...*-111--*--*1*
-111-0111--.---.110-1--11
---1-1.0*1-0--1--1-0-1*01
011-.1**---*11.1--*1-.-0-

Generation = 4, Population = 293.
*-1--*1..*-.--.-*1.0*0*--
*1--.*--*1-01-0-0-*11.---
*.1-0--101--.0----.1.*1.-
1*1---0*0-*1*-*1*.*01..0.
--0*-*.1*---.0--.1*.0-0.0
*--0*-00*0.--**-0..-*-0--
1*-100-*-011*..-001-0--.-
-.01.-.---0.*.010-0.--.*0
-*--**--1.---*00.11--0.1-
0-0-1-0-*1--.*000-.*--1**
0--01---*----0--0*-0010-1
-*-1--1-1*0*--*0---*101-1
-.011-.1--0-1--.---.0.0-0
1.*11-*.-1*.0--1-*1-.*.*.
--0-0-*-----.1-1--1-0---.
1-0--*--1.-0.111-.*-0-1-0
*-.10.11*-1*1--.---.*0-.-
.-10-1--.1-0.---.------0*
*0-.1*.-*101.1-*00*-0--.1
1-1**0*111---*0*01--01-*-
.-1-.-1--0*--*0.0*--1.-.-
-*.-.---**...0**-01.-0**.
--**01-**--.1--.-*1---0**
0-0*--.1.*-1-----*-10*.--
1-*-*-.*-00*-**-0-*-1.-1-

